[gd_scene load_steps=4 format=2]

[ext_resource path="res://Spritesheets/Objects.png" type="Texture" id=1]
[ext_resource path="res://Scripts/Coin.gd" type="Script" id=2]

[sub_resource type="RectangleShape2D" id=1]

custom_solver_bias = 0.0
extents = Vector2( 32, 32 )

[node name="Coin" type="Sprite"]

position = Vector2( 1280, 160 )
texture = ExtResource( 1 )
region_enabled = true
region_rect = Rect2( 0, 0, 32, 32 )
script = ExtResource( 2 )
_sections_unfolded = [ "Region" ]

[node name="CoinArea" type="Area2D" parent="." index="0"]

input_pickable = true
gravity_vec = Vector2( 0, 1 )
gravity = 98.0
linear_damp = 0.1
angular_damp = 1.0
audio_bus_override = false
audio_bus_name = "Master"

[node name="CollisionShape2D" type="CollisionShape2D" parent="CoinArea" index="0"]

shape = SubResource( 1 )

[connection signal="body_entered" from="CoinArea" to="." method="_on_CoinArea_body_entered"]


